tests/interfaces/bench.vcd
$date
    Sun Nov 16 19:25:36 2014
$end
$version
    MyHDL 0.8.1
$end
$timescale
    1ns
$end

$scope module bench $end
$var reg 1 ! reset $end
$var reg 3 " ws_count $end
$var reg 6 # right $end
$var reg 1 $ sdata $end
$var reg 24 % sdata_pipe $end
$var reg 1 & right_ready $end
$var reg 1 ' sdata_out $end
$var reg 1 ( left_ready $end
$var reg 1 ) ws $end
$var reg 1 * sclk $end
$var reg 6 + left $end
$scope module ws_gen $end
$var reg 1 ) clockdivided $end
$var reg 3 " counter $end
$upscope $end
$scope module clockgen $end
$var reg 1 * clock $end
$upscope $end
$scope module receiver $end
$var reg 1 ! reset $end
$var reg 6 # right $end
$var reg 1 , wsd $end
$var reg 1 $ sdata $end
$var reg 1 - wsp $end
$var reg 1 & right_ready $end
$var reg 1 . nwsd $end
$var reg 1 ( left_ready $end
$var reg 1 ) ws $end
$var reg 1 * sclk $end
$var reg 6 / buf $end
$var reg 6 + left $end
$scope module s2p $end
$var reg 1 * sclk $end
$var reg 6 / dout $end
$var reg 1 $ sdata $end
$var reg 1 - start $end
$var reg 1 0 en(0) $end
$var reg 1 1 en(1) $end
$var reg 1 2 en(2) $end
$var reg 1 3 en(3) $end
$var reg 1 4 en(4) $end
$var reg 1 5 buf(0) $end
$var reg 1 6 buf(1) $end
$var reg 1 7 buf(2) $end
$var reg 1 8 buf(3) $end
$var reg 1 9 buf(4) $end
$var reg 1 : buf(5) $end
$scope module bufs_4 $end
$var reg 1 5 q $end
$var reg 1 - rst $end
$var reg 1 0 enable $end
$var reg 1 $ d $end
$var reg 1 * clk $end
$upscope $end
$scope module bufs_3 $end
$var reg 1 6 q $end
$var reg 1 - rst $end
$var reg 1 1 enable $end
$var reg 1 $ d $end
$var reg 1 * clk $end
$upscope $end
$scope module bufs_2 $end
$var reg 1 7 q $end
$var reg 1 - rst $end
$var reg 1 2 enable $end
$var reg 1 $ d $end
$var reg 1 * clk $end
$upscope $end
$scope module bufs_1 $end
$var reg 1 8 q $end
$var reg 1 - rst $end
$var reg 1 3 enable $end
$var reg 1 $ d $end
$var reg 1 * clk $end
$upscope $end
$scope module bufs_0 $end
$var reg 1 9 q $end
$var reg 1 - rst $end
$var reg 1 4 enable $end
$var reg 1 $ d $end
$var reg 1 * clk $end
$upscope $end
$scope module shifts_3 $end
$var reg 1 0 q $end
$var reg 1 - rst $end
$var reg 1 1 d $end
$var reg 1 * clk $end
$upscope $end
$scope module shifts_2 $end
$var reg 1 1 q $end
$var reg 1 - rst $end
$var reg 1 2 d $end
$var reg 1 * clk $end
$upscope $end
$scope module shifts_1 $end
$var reg 1 2 q $end
$var reg 1 - rst $end
$var reg 1 3 d $end
$var reg 1 * clk $end
$upscope $end
$scope module shifts_0 $end
$var reg 1 3 q $end
$var reg 1 - rst $end
$var reg 1 4 d $end
$var reg 1 * clk $end
$upscope $end
$scope module buf_msb $end
$var reg 1 : q $end
$var reg 1 - enable $end
$var reg 1 $ d $end
$var reg 1 * clk $end
$upscope $end
$scope module shift_msb $end
$var reg 1 4 q $end
$var reg 1 - s $end
$var reg 1 * clk $end
$upscope $end
$upscope $end
$scope module ws_select $end
$var reg 1 , wsd $end
$var reg 1 * sclk $end
$var reg 1 . nwsd $end
$var reg 1 - wsp $end
$var reg 1 ; wsdd $end
$var reg 1 ) ws $end
$upscope $end
$upscope $end
$scope module transmitter $end
$var reg 1 ! reset $end
$var reg 1 & load_right $end
$var reg 6 # right $end
$var reg 1 ( load_left $end
$var reg 1 ' sdata $end
$var reg 6 < right_buf $end
$var reg 1 * sclk $end
$var reg 1 = nwsd $end
$var reg 1 > wsp $end
$var reg 6 ? left_right $end
$var reg 1 ) ws $end
$var reg 6 @ left_buf $end
$var reg 6 + left $end
$var reg 1 A wsd $end
$scope module shifter $end
$var reg 1 > load $end
$var reg 1 ! reset $end
$var reg 1 ' sdata $end
$var reg 1 * sclk $end
$var reg 6 B buf $end
$var reg 6 ? parallel_in $end
$upscope $end
$scope module ws_select $end
$var reg 1 A wsd $end
$var reg 1 * sclk $end
$var reg 1 = nwsd $end
$var reg 1 > wsp $end
$var reg 1 C wsdd $end
$var reg 1 ) ws $end
$upscope $end
$scope module right_buffer $end
$var reg 1 & load $end
$var reg 1 ! reset $end
$var reg 6 < dout $end
$var reg 1 * sclk $end
$var reg 1 A output_enable $end
$var reg 6 D buf $end
$var reg 6 # parallel_in $end
$var reg 1 > wait $end
$upscope $end
$scope module left_buffer $end
$var reg 1 ( load $end
$var reg 1 ! reset $end
$var reg 6 @ dout $end
$var reg 1 * sclk $end
$var reg 1 = output_enable $end
$var reg 6 E buf $end
$var reg 6 + parallel_in $end
$var reg 1 > wait $end
$upscope $end
$upscope $end
$upscope $end

$enddefinitions $end
$dumpvars
0!
b000 "
b000000 #
0$
b000000000000000000000000 %
0&
0'
0(
0)
0*
b000000 +
0,
0-
0.
b000000 /
00
01
02
03
04
05
06
07
08
09
0:
0;
b000000 <
0=
0>
b000000 ?
b000000 @
0A
b000000 B
0C
b000000 D
b000000 E
$end
1(
1&
#10
1*
1=
1.
#20
0*
b001 "
#30
1*
#40
0*
b010 "
#50
1*
#60
0*
b011 "
1$
#70
1*
#80
0*
0$
b100000000000000000000000 %
b100 "
#90
1*
#100
0*
b101 "
b010000000000000000000000 %
#110
1*
#120
0*
b001000000000000000000000 %
b000 "
1)
#130
1*
1A
0=
1,
0.
1-
1>
0&
#140
0*
b001 "
b000100000000000000000000 %
#150
1*
14
1;
1C
0>
0-
1&
#160
0*
b000010000000000000000000 %
b010 "
#170
1*
04
13
#180
0*
b011 "
b000001000000000000000000 %
#190
1*
12
03
#200
0*
1$
b000000100000000000000000 %
b100 "
#210
1*
02
11
17
#220
0*
b101 "
0$
b100000010000000000000000 %
#230
1*
10
01
#240
0*
b010000001000000000000000 %
b000 "
0)
#250
1*
0A
1=
0,
1.
00
1-
1>
0(
#260
0*
b001 "
b001000000100000000000000 %
#270
1*
b000100 /
07
14
0;
0C
0>
0-
1(
#280
0*
1$
b000100000010000000000000 %
b010 "
#290
1*
04
13
19
#300
0*
b011 "
b100010000001000000000000 %
#310
1*
18
12
03
#320
0*
0$
b110001000000100000000000 %
b100 "
#330
1*
02
11
#340
0*
b101 "
b011000100000010000000000 %
#350
1*
10
01
#360
0*
1$
b001100010000001000000000 %
b000 "
1)
#370
1*
1A
0=
1,
0.
00
15
1-
1>
0&
#380
0*
b001 "
0$
b100110001000000100000000 %
#390
1*
b000100 #
b011001 /
05
08
09
14
1;
1C
0>
0-
1&
#400
0*
b010011000100000010000000 %
b010 "
#410
1*
04
13
#420
0*
b011 "
b001001100010000001000000 %
#430
1*
12
03
#440
0*
1$
b000100110001000000100000 %
b100 "
#450
1*
02
11
17
#460
0*
b101 "
b100010011000100000010000 %
#470
1*
16
10
01
#480
0*
0$
b110001001100010000001000 %
b000 "
0)
#490
1*
0A
1=
0,
1.
00
1-
1>
0(
#500
0*
b001 "
1$
b011000100110001000000100 %
#510
1*
b011001 +
b000110 /
06
07
1:
14
0;
0C
0>
0-
1(
#520
0*
b101100010011000100000010 %
b010 "
#530
1*
b000100 D
04
13
19
#540
0*
b011 "
0$
b110110001001100010000001 %
#550
1*
12
03
#560
0*
1$
b011011000100110001000000 %
b100 "
#570
1*
02
11
17
#580
0*
b101 "
0$
b101101100010011000100000 %
#590
1*
10
01
#600
0*
1$
b010110110001001100010000 %
b000 "
1)
#610
1*
1A
0=
1,
0.
00
15
1-
b000100 <
1>
b000100 ?
0&
#620
0*
b000100 B
b001 "
0$
b101011011000100110001000 %
#630
1*
b000110 #
b110101 /
05
07
09
0:
14
1;
1C
0>
0-
1&
#640
0*
b010101101100010011000100 %
b010 "
b001000 B
#650
1*
b011001 E
04
13
#660
0*
b010000 B
b011 "
1$
b001010110110001001100010 %
#670
1*
18
12
03
#680
0*
b100101011011000100110001 %
b100 "
b100000 B
1'
#690
1*
02
11
17
#700
0*
b000000 B
b101 "
0$
b110010101101100010011000 %
0'
#710
1*
10
01
#720
0*
b011001010110110001001100 %
b000 "
0)
#730
1*
0A
1=
0,
1.
00
1-
b011001 @
1>
b000000 <
b011001 ?
0(
#740
0*
b011001 B
b001 "
1$
b001100101011011000100110 %
#750
1*
b110101 +
b001100 /
07
08
1:
14
0;
0C
0>
0-
1(
#760
0*
b100110010101101100010011 %
b010 "
b110010 B
1'
#770
1*
b000110 D
04
13
19
#780
0*
b100100 B
b011 "
b110011001010110110001001 %
#790
1*
18
12
03
#800
0*
0$
b111001100101011011000100 %
b100 "
b001000 B
0'
#810
1*
02
11
#820
0*
b010000 B
b101 "
1$
b011100110010101101100010 %
#830
1*
16
10
01
#840
0*
b101110011001010110110001 %
b000 "
1)
b100000 B
1'
#850
1*
1A
0=
1,
0.
00
15
1-
b000000 @
b000110 <
1>
b000110 ?
0&
#860
0*
b000110 B
b001 "
0$
b110111001100101011011000 %
0'
#870
1*
b001100 #
b111011 /
05
06
08
09
0:
14
1;
1C
0>
0-
1&
#880
0*
b011011100110010101101100 %
b010 "
b001100 B
#890
1*
b110101 E
04
13
#900
0*
b011000 B
b011 "
1$
b001101110011001010110110 %
#910
1*
18
12
03
#920
0*
b100110111001100101011011 %
b100 "
b110000 B
1'
#930
1*
02
11
17
#940
0*
b100000 B
b101 "
0$
b110011011100110010101101 %
#950
1*
10
01
#960
0*
b011001101110011001010110 %
b000 "
0)
b000000 B
0'
#970
1*
0A
1=
0,
1.
00
1-
b110101 @
1>
b000000 <
b110101 ?
0(
#980
0*
b110101 B
b001 "
1$
b001100110111001100101011 %
1'
#990
1*
b111011 +
b001100 /
07
08
1:
14
0;
0C
0>
0-
1(
#1000
0*
b100110011011100110010101 %
b010 "
b101010 B
#1010
1*
b001100 D
04
13
19
#1020
0*
b010100 B
b011 "
0$
b110011001101110011001010 %
0'
#1030
1*
12
03
#1040
0*
1$
b011001100110111001100101 %
b100 "
b101000 B
1'
#1050
1*
02
11
17
#1060
0*
b010000 B
b101 "
0$
b101100110011011100110010 %
0'
#1070
1*
10
01
#1080
0*
1$
b010110011001101110011001 %
b000 "
1)
b100000 B
1'
#1090
1*
1A
0=
1,
0.
00
15
1-
b000000 @
b001100 <
1>
b001100 ?
0&
#1100
0*
b001100 B
b001 "
b101011001100110111001100 %
0'
#1110
1*
b110101 /
05
07
09
14
1;
1C
0>
0-
1&
#1120
0*
b110101100110011011100110 %
b010 "
b011000 B
#1130
1*
b111011 E
04
13
19
#1140
0*
b110000 B
b011 "
0$
b111010110011001101110011 %
1'
#1150
1*
12
03
#1160
0*
b011101011001100110111001 %
b100 "
b100000 B
#1170
1*
02
11
#1180
0*
b000000 B
b101 "
b001110101100110011011100 %
0'
#1190
1*
10
01
#1200
0*
1$
b000111010110011001101110 %
b000 "
0)
#1210
1*
0A
1=
0,
1.
00
15
1-
b111011 @
1>
b000000 <
b111011 ?
0(
#1220
0*
b111011 B
b001 "
0$
b100011101011001100110111 %
1'
#1230
1*
b110101 +
b110001 /
05
09
0:
14
0;
0C
0>
0-
1(
#1240
0*
1$
b010001110101100110011011 %
b010 "
b110110 B
#1250
1*
04
13
19
#1260
0*
b101100 B
b011 "
0$
b101000111010110011001101 %
#1270
1*
12
03
#1280
0*
1$
b010100011101011001100110 %
b100 "
b011000 B
0'
#1290
1*
02
11
17
#1300
0*
b110000 B
b101 "
b101010001110101100110011 %
1'
#1310
1*
16
10
01
#1320
0*
b110101000111010110011001 %
b000 "
1)
b100000 B
#1330
1*
1A
0=
1,
0.
00
15
1-
b000000 @
1>
b001100 <
b001100 ?
0&
#1340
0*
b001100 B
b001 "
0$
b111010100011101011001100 %
0'
#1350
1*
b110001 #
b010111 /
05
06
07
09
14
1;
1C
0>
0-
1&
#1360
0*
1$
b011101010001110101100110 %
b010 "
b011000 B
#1370
1*
b110101 E
04
13
19
#1380
0*
b110000 B
b011 "
b101110101000111010110011 %
1'
#1390
1*
18
12
03
#1400
0*
b110111010100011101011001 %
b100 "
b100000 B
#1410
1*
02
11
17
#1420
0*
b000000 B
b101 "
b111011101010001110101100 %
0'
#1430
1*
16
10
01
#1440
0*
b111101110101000111010110 %
b000 "
0)
#1450
1*
0A
1=
0,
1.
00
15
1-
b110101 @
1>
b000000 <
b110101 ?
0(
#1460
0*
b110101 B
b001 "
b111110111010100011101011 %
1'
#1470
1*
b010111 +
b011111 /
05
06
07
08
09
1:
14
0;
0C
0>
0-
1(
#1480
0*
b111111011101010001110101 %
b010 "
b101010 B
#1490
1*
b110001 D
04
13
19
#1500
0*
b010100 B
b011 "
b111111101110101000111010 %
0'
#1510
1*
18
12
03
#1520
0*
b111111110111010100011101 %
b100 "
b101000 B
1'
#1530
1*
02
11
17
#1540
0*
b010000 B
b101 "
0$
b111111111011101010001110 %
0'
#1550
1*
10
01
#1560
0*
1$
b011111111101110101000111 %
b000 "
1)
b100000 B
1'
#1570
1*
1A
0=
1,
0.
00
15
1-
b000000 @
b110001 <
1>
b110001 ?
0&
#1580
0*
b110001 B
b001 "
0$
b101111111110111010100011 %
#1590
1*
b011111 #
b111101 /
05
07
08
09
0:
14
1;
1C
0>
0-
1&
#1600
0*
1$
b010111111111011101010001 %
b010 "
b100010 B
#1610
1*
b010111 E
04
13
19
#1620
0*
b000100 B
b011 "
b101011111111101110101000 %
0'
#1630
1*
18
12
03
#1640
0*
0$
b110101111111110111010100 %
b100 "
b001000 B
#1650
1*
02
11
#1660
0*
b010000 B
b101 "
1$
b011010111111111011101010 %
#1670
1*
16
10
01
#1680
0*
0$
b101101011111111101110101 %
b000 "
0)
b100000 B
1'
#1690
1*
0A
1=
0,
1.
00
1-
b010111 @
1>
b000000 <
b010111 ?
0(
#1700
0*
b010111 B
b001 "
1$
b010110101111111110111010 %
0'
#1710
1*
b111101 +
b011010 /
06
08
09
1:
14
0;
0C
0>
0-
1(
#1720
0*
0$
b101011010111111111011101 %
b010 "
b101110 B
1'
#1730
1*
b011111 D
04
13
#1740
0*
b011100 B
b011 "
b010101101011111111101110 %
0'
#1750
1*
12
03
#1760
0*
b001010110101111111110111 %
b100 "
b111000 B
1'
#1770
1*
02
11
#1780
0*
b110000 B
b101 "
1$
b000101011010111111111011 %
#1790
1*
16
10
01
#1800
0*
0$
b100010101101011111111101 %
b000 "
1)
b100000 B
#1810
1*
1A
0=
1,
0.
00
1-
b000000 @
b011111 <
1>
b011111 ?
0&
#1820
0*
b011111 B
b001 "
b010001010110101111111110 %
0'
#1830
1*
b011010 #
b100010 /
06
0:
14
1;
1C
0>
0-
1&
#1840
0*
1$
b001000101011010111111111 %
b010 "
b111110 B
1'
#1850
1*
b111101 E
04
13
19
#1860
0*
b111100 B
b011 "
b100100010101101011111111 %
#1870
1*
18
12
03
#1880
0*
b110010001010110101111111 %
b100 "
b111000 B
#1890
1*
02
11
17
#1900
0*
b110000 B
b101 "
b111001000101011010111111 %
#1910
1*
16
10
01
#1920
0*
b111100100010101101011111 %
b000 "
0)
b100000 B
#1930
1*
0A
1=
0,
1.
00
15
1-
b111101 @
1>
b000000 <
b111101 ?
0(
#1940
0*
b111101 B
b001 "
b111110010001010110101111 %
#1950
1*
b100010 +
b011111 /
05
06
07
08
09
1:
14
0;
0C
0>
0-
1(
#1960
0*
0$
b111111001000101011010111 %
b010 "
b111010 B
#1970
1*
b011010 D
04
13
#1980
0*
b110100 B
b011 "
1$
b011111100100010101101011 %
#1990
1*
18
12
03
#2000
0*
b101111110010001010110101 %
b100 "
b101000 B
